{
  "project_info": {
    "project_number": "432251872468",
    "firebase_url": "https://ibuymarket.firebaseio.com",
    "project_id": "ibuymarket",
    "storage_bucket": "ibuymarket.appspot.com"
  },
  "client": [
    {
      "client_info": {
        "mobilesdk_app_id": "1:432251872468:android:e5ad741bd64feeefc58741",
        "android_client_info": {
          "package_name": "com.ibuy.market"
        }
      },
      "oauth_client": [
        {
          "client_id": "432251872468-9uqa79rg08nd9r6btr65e3igrdkrkddq.apps.googleusercontent.com",
          "client_type": 3
        }
      ],
      "api_key": [
        {
          "current_key": "AIzaSyBbJhJ2Ccbj4FG1Bo3DDUrtIWxTlyzjojI"
        }
      ],
      "services": {
        "appinvite_service": {
          "other_platform_oauth_client": [
            {
              "client_id": "432251872468-9uqa79rg08nd9r6btr65e3igrdkrkddq.apps.googleusercontent.com",
              "client_type": 3
            }
          ]
        }
      }
    }
  ],
  "configuration_version": "1"
}